This is BibTeX, Version 0.99d (TeX Live 2013)
Capacity: max_strings=35307, hash_size=35307, hash_prime=30011
The top-level auxiliary file: handout.aux
The style file: plain.bst
Database file #1: Literatur.bib.bib
You've used 10 entries,
            2118 wiz_defined-function locations,
            552 strings with 5460 characters,
and the built_in function-call counts, 2359 in all, are:
= -- 222
> -- 70
< -- 0
+ -- 30
- -- 20
* -- 116
:= -- 424
add.period$ -- 30
call.type$ -- 10
change.case$ -- 36
chr.to.int$ -- 0
cite$ -- 10
duplicate$ -- 110
empty$ -- 227
format.name$ -- 20
if$ -- 493
int.to.chr$ -- 0
int.to.str$ -- 10
missing$ -- 13
newline$ -- 53
num.names$ -- 20
pop$ -- 50
preamble$ -- 1
purify$ -- 30
quote$ -- 0
skip$ -- 65
stack$ -- 0
substring$ -- 113
swap$ -- 10
text.length$ -- 0
text.prefix$ -- 0
top$ -- 0
type$ -- 32
warning$ -- 0
while$ -- 25
width$ -- 12
write$ -- 107
